SGD Clustering
…
Summarise: Range of parameters across sample times

# Range of parameters
Full_data <- AllChemData %>%
  group_by(Location, CowTagID, Season) %>%
  # get parameter ranges across sampling periods by site and plate
  summarise_at(vars(Salinity:Tyrosine_Like), .funs = range, na.rm=T) %>% # returns two rows containing max and min value per CowTagID
  summarise_at(vars(Salinity:Tyrosine_Like), .funs = diff, na.rm=T) %>%  # returns difference between rows per CowTagID (yields range at each location)
  ungroup() %>% 
  left_join(turb, by = c('CowTagID', 'Season'))  # join with turb

Full_data

## # A tibble: 84 x 17
##    Location CowTagID Season Salinity     TA     pH Phosphate_umolL
##    <chr>    <chr>    <chr>     <dbl>  <dbl>  <dbl>           <dbl>
##  1 Cabral   C1       Dry       0.270  50.0  0.198           0.1   
##  2 Cabral   C1       Wet       0.290 209.   0.216           0.0137
##  3 Cabral   C10      Dry       0.200  60.7  0.157           0.07  
##  4 Cabral   C10      Wet       0.130  38.2  0.174           0.0403
##  5 Cabral   C11      Dry       0.110  12.2  0.0811          0.07  
##  6 Cabral   C11      Wet       0.200  75.1  0.199           0.0566
##  7 Cabral   C12      Dry       0.140   5.96 0.0707          0.1   
##  8 Cabral   C12      Wet       0.130  73.8  0.145           0.0787
##  9 Cabral   C13      Dry       0.950  86.8  0.209           0.09  
## 10 Cabral   C13      Wet       0.140 103.   0.270           0.0767
## # ... with 74 more rows, and 10 more variables: Silicate_umolL <dbl>,
## #   NN_umolL <dbl>, Ammonia_umolL <dbl>, M_C <dbl>, HIX <dbl>,
## #   VisibleHumidic_Like <dbl>, Tryptophan_Like <dbl>, Tyrosine_Like <dbl>,
## #   del15N <dbl>, N_percent <dbl>
…
