Species Richness and % Cover across SGD zones
…
### calculate species richness ###
richnessT <- spclusterT %>%
  rename(V_cluster = V_cluster_turb) %>%
  select(Location, CowTagID, Taxa, V_cluster) %>%
  group_by(Location, CowTagID, V_cluster) %>%
  count(name = 'spR', Taxa) %>%
  mutate(spR = sum(spR)) %>%
  ungroup() %>%
  select(-Taxa) %>%
  distinct()
richnessT

## # A tibble: 21 x 4
##    Location CowTagID V_cluster   spR
##    <chr>    <chr>    <fct>     <int>
##  1 Varari   V1       Low          22
##  2 Varari   V10      Low          18
##  3 Varari   V11      Mid          22
##  4 Varari   V12      Mid          23
##  5 Varari   V13      Low          19
##  6 Varari   V14      Low          11
##  7 Varari   V15      Mid          25
##  8 Varari   V16      Low          14
##  9 Varari   V17      Mid          10
## 10 Varari   V18      Mid          19
## # ... with 11 more rows
…
### calculate species richness ###
richnessT <- spclusterT %>%
  rename(V_cluster = V_cluster_turb) %>%
  select(Location, CowTagID, Taxa, V_cluster) %>%
  group_by(Location, CowTagID, V_cluster) %>%
  count(name = 'spR', Taxa) %>%
  mutate(spR = sum(spR)) %>%
  ungroup() %>%
  select(-Taxa) %>%
  distinct()
richnessT

## # A tibble: 21 x 4
##    Location CowTagID V_cluster   spR
##    <chr>    <chr>    <fct>     <int>
##  1 Varari   V1       Low          22
##  2 Varari   V10      Low          18
##  3 Varari   V11      High         22
##  4 Varari   V12      High         23
##  5 Varari   V13      Low          19
##  6 Varari   V14      Low          11
##  7 Varari   V15      High         25
##  8 Varari   V16      Mid          14
##  9 Varari   V17      High         10
## 10 Varari   V18      High         19
## # ... with 11 more rows
…
